<?xml version="1.0" encoding="UTF-8" standalone="no"?>
<!-- Creator: CorelDRAW 2018 -->

<svg
   xmlns:dc="http://purl.org/dc/elements/1.1/"
   xmlns:cc="http://creativecommons.org/ns#"
   xmlns:rdf="http://www.w3.org/1999/02/22-rdf-syntax-ns#"
   xmlns:svg="http://www.w3.org/2000/svg"
   xmlns="http://www.w3.org/2000/svg"
   xmlns:sodipodi="http://sodipodi.sourceforge.net/DTD/sodipodi-0.dtd"
   xmlns:inkscape="http://www.inkscape.org/namespaces/inkscape"
   xml:space="preserve"
   width="528.52832mm"
   height="85.992699mm"
   version="1.1"
   style="clip-rule:evenodd;fill-rule:evenodd;image-rendering:optimizeQuality;shape-rendering:geometricPrecision;text-rendering:geometricPrecision"
   viewBox="0 0 52852.832 8599.2699"
   id="svg30"
   sodipodi:docname="grey.svg"
   inkscape:version="0.92.4 (5da689c313, 2019-01-14)"><metadata
   id="metadata34"><rdf:RDF><cc:Work
       rdf:about=""><dc:format>image/svg+xml</dc:format><dc:type
         rdf:resource="http://purl.org/dc/dcmitype/StillImage" /><dc:title></dc:title></cc:Work></rdf:RDF></metadata><sodipodi:namedview
   pagecolor="#ffffff"
   bordercolor="#666666"
   borderopacity="1"
   objecttolerance="10"
   gridtolerance="10"
   guidetolerance="10"
   inkscape:pageopacity="0"
   inkscape:pageshadow="2"
   inkscape:window-width="1600"
   inkscape:window-height="837"
   id="namedview32"
   showgrid="false"
   fit-margin-top="0"
   fit-margin-left="0"
   fit-margin-right="0"
   fit-margin-bottom="0"
   inkscape:zoom="0.5"
   inkscape:cx="1432.9548"
   inkscape:cy="74.240905"
   inkscape:window-x="-8"
   inkscape:window-y="-8"
   inkscape:window-maximized="1"
   inkscape:current-layer="svg30" />
 <defs
   id="defs4">
  <style
   type="text/css"
   id="style2">
   <![CDATA[
    .fil0 {fill:#3F3F40}
    .fil2 {fill:#A44508}
    .fil1 {fill:#FC6A0D}
   ]]>
  </style>
 
  
  
  
  
  
  
  
  
  
  
  
  
 </defs>
 <path
   style="fill:#3f3f40"
   inkscape:connector-curvature="0"
   id="path7"
   d="m 16078.39,7168.7 v 1389.29 c 890.15,0 1780.3,0 2670.45,0 1365.93,0 3344.68,380.57 3752.11,-1698.16 134.55,-686.52 -186.81,-1518.72 -732.34,-1929.46 -872.29,-656.77 -2149.89,-412.15 -3578.37,-426.83 -950.05,-9.76 -1047.79,-1170.52 112.04,-1170.75 l 4118.45,1.49 V 1944.99 c -1193.45,0 -4369.18,-164.82 -5209.09,187.26 -1134.32,475.48 -1736.98,2360.88 -244.05,3425.84 828.63,591.09 2737.22,218.29 3671.53,333.78 383.57,47.41 574.07,487.54 457.39,842.78 -149.18,454.19 -471.65,435.95 -901.08,434.13 z"
   class="fil0" /><path
   style="fill:#3f3f40"
   inkscape:connector-curvature="0"
   id="path9"
   d="M 40668.86,5112.56 V 3278.71 c 617.65,0 2896.04,-111.28 3377.66,127.17 261.23,129.34 453.23,490.81 454.05,762.95 0.84,278.32 -185.65,589.45 -395.34,764.06 -285.48,237.69 -672.7,179.71 -1044.08,179.67 -797.43,-0.08 -1594.86,0 -2392.29,0 z m -1335.23,3445.43 h 1335.23 V 6390.7 c 905.53,0 1980.02,-129.38 2657.81,512.78 541.79,513.31 624.63,1022.11 624.63,1654.51 h 1335.23 c 0,-1153.41 -227.68,-1501.82 -778.88,-2334 611.89,-307.02 1279.59,-1052.72 1279.59,-1778.28 0,-789.24 -3.22,-1207.02 -708.33,-1904.33 -375.97,-371.8 -1055.56,-596.39 -1572.69,-596.39 h -4172.59 z"
   class="fil0" /><path
   style="fill:#3f3f40"
   inkscape:connector-curvature="0"
   id="path11"
   d="M 27539.11,8557.99 V 7279.84 c -749.72,0 -1709.74,79.32 -2267.66,-402.34 -1511.02,-1304.48 -651.3,-3052.07 396.74,-3467.01 613.17,-242.77 1859.61,-131.78 2594.17,-131.78 v 5279.28 h 1335.22 v -6613 c -1092.27,0 -3321.68,-109.16 -4180.48,158.84 -2335.52,728.82 -3039.42,3775.65 -1313.38,5495.5 1082.07,1078.19 1897.84,958.66 3435.39,958.66 z"
   class="fil0" /><path
   style="fill:#3f3f40"
   inkscape:connector-curvature="0"
   id="path13"
   d="m 52852.83,1944.99 h -1279.6 c 0,989.36 94.42,2680.16 -49.15,3563.05 -90.79,558.34 -172.72,800.61 -576.19,1202.74 -310.76,309.71 -829.72,556.93 -1267.99,571.47 -390.3,12.95 -979.39,-242.59 -1265.12,-515.24 -391.81,-373.88 -544.61,-662.18 -631.35,-1203.23 -144.56,-901.74 -48.98,-2610.57 -48.98,-3618.79 h -1335.23 v 2556.29 l 67.02,1266.77 c 198.3,1329.81 1208.75,2467.37 2542.58,2739.58 1439.22,293.72 2804.41,-446.17 3473.68,-1653.27 321.23,-579.36 365.45,-1105.76 370.33,-1743.23 v -498.71 c 0,-889.14 0,-1778.28 0,-2667.43 z"
   class="fil0" /><polygon
   style="fill:#3f3f40"
   id="polygon15"
   points="-56688.57,11928.78 -56688.57,15342.66 -56610.21,15343.88 -56688.57,15349.02 -56688.57,18541.78 -55408.98,18541.78 -55408.98,11928.78 "
   class="fil0"
   transform="translate(70819.75,-9983.7897)" /><polygon
   style="fill:#3f3f40"
   id="polygon17"
   points="-33043.89,17208.06 -34314.28,17214.71 -34323.48,18541.78 -33043.89,18541.78 "
   class="fil0"
   transform="translate(70819.75,-9983.7897)" /><path
   style="fill:#fc6a0d"
   inkscape:connector-curvature="0"
   id="path19"
   d="M 34396.46,8599.27 39182.98,8.98 37275.16,0 34396.46,4931.56 31591.47,5.07 29653.22,0 c 41.49,172.07 4052.34,7719.73 4743.24,8599.27 z"
   class="fil1" /><path
   style="fill:#fc6a0d"
   inkscape:connector-curvature="0"
   id="path21"
   d="m 14131.18,5365.23 78.36,-5.14 -78.36,-1.22 -2169.75,142.69 c -733.34,-0.02 -1602.34,24.5 -2332.4,-59.81 C 7316.5,5174.61 4305.01,4651.44 2437.6,3177.87 1986.25,2821.7 1596.11,2237.03 1717.91,1661.74 1876.03,914.83 2463.08,821.84 2893,444.57 2204.43,505.82 858.28,1380.87 428.34,1872.71 185.33,2150.71 49.93,2415.96 0,2668.17 v 450.54 C 93.88,3588.6 473.92,4005.9 968.05,4367.9 2164.89,5244.72 4734.15,5772 6285.47,5891.8 l 891.39,109.9 c 170.67,64.65 112.23,77.17 233.16,267.25 270.34,424.89 1214.48,2059.88 1380.24,2177.89 244.74,-174.24 1245,-2073.2 1572.08,-2486.42 0.49,-0.27 3068.44,-273.62 3768.84,-595.19 z"
   class="fil1" /><path
   style="fill:#fc6a0d"
   inkscape:connector-curvature="0"
   id="path23"
   d="m 9068.43,4945.85 c 625.85,55.82 1206.72,146.89 1816.1,197.13 L 14016.49,0 H 12072.7 c -8.66,10.18 -22.67,12.28 -26.34,30.22 l -352.03,536.55 c -229.6,371.04 -880.65,1405.72 -1477.01,2377.68 -298.18,485.98 -582.7,956.29 -794.02,1320.12 -211.32,363.83 -349.45,621.19 -354.87,681.28 z"
   class="fil1" /><path
   style="fill:#fc6a0d"
   inkscape:connector-curvature="0"
   id="path25"
   d="m 8522.57,4879.3 c -3.6,-4.95 -26.7,-39.77 -73.75,-143.49 C 8259.82,4331.4 6017.7,895.7 5563.46,0 H 3616.25 c 50.96,211.39 1908,3239.93 2291.38,3824.07 l 499.29,632.34 c 375.81,73.06 2120.06,428.92 2115.65,422.89 z"
   class="fil1" />
</svg>